SmartAllocate – Predicting EMS Response for Smarter, More Efficient Ambulance Allocation
…
dplyr::select(st_set_geometry(call.panel, NULL), 
              interval60.3, TRACTCE10, Call_Count, 
              lagHour, lag2Hours)

## # A tibble: 17,664 x 6
## # Groups:   interval60.x [184]
##    interval60.x    interval60.3        TRACTCE10 Call_Count lagHour lag2Hours
##  * <chr>           <dttm>              <fct>          <dbl>   <dbl>     <dbl>
##  1 6/14/2010 0:00  2010-06-14 00:00:00 040000             0      NA        NA
##  2 6/14/2010 1:00  2010-06-14 01:00:00 040000             0      NA        NA
##  3 6/14/2010 2:00  2010-06-14 02:00:00 040000             0      NA        NA
##  4 6/14/2010 3:00  2010-06-14 03:00:00 040000             0      NA        NA
##  5 6/14/2010 4:00  2010-06-14 04:00:00 040000             0      NA        NA
##  6 6/14/2010 6:00  2010-06-14 06:00:00 040000             0      NA        NA
##  7 6/14/2010 7:00  2010-06-14 07:00:00 040000             0      NA        NA
##  8 6/14/2010 8:00  2010-06-14 08:00:00 040000             1      NA        NA
##  9 6/14/2010 9:00  2010-06-14 09:00:00 040000             0      NA        NA
## 10 6/14/2010 10:00 2010-06-14 10:00:00 040000             0      NA        NA
## # ... with 17,654 more rows
…
